Pré-processamento de dados com o pacote {recipes} | Edgar Cutar Junior
…
Agora temos uma receita pronta para ser aplicada. A receita guarda o modelo k-nearest-neighbour criado, as médias e desvios padrões, assim como qualquer outro dado necessário para pré-processar sua base.

Primeiro vamos retirar a base de treino pré-processada, para isso, basta usar a função juice() na receita. A seguir, vamos pré-processar a base de treino usando a função bake().

train_data <- rec %>% juice()
test_data <- rec %>% bake(credit_test)

Temos agora uma base pré-processada e pronta para uso, seja em modelagem, seja para visualização.

train_data

## # A tibble: 3,341 x 23
##    Seniority   Time      Age Expenses Income Assets    Debt  Amount   Price
##        <dbl>  <dbl>    <dbl>    <dbl>  <dbl>  <dbl>   <dbl>   <dbl>   <dbl>
##  1     0.133  0.921 -0.635      0.885 -0.171 -0.449 -0.273  -0.488  -0.996 
##  2     1.12   0.921  1.92      -0.386 -0.146 -0.449 -0.273  -0.0646  0.343 
##  3    -0.979  0.921 -1.18       0.377  0.492 -0.240 -0.273  -0.276  -0.206 
##  4    -0.979 -0.706 -1.00      -0.488 -0.446 -0.449 -0.273  -1.53   -0.890 
##  5    -0.856  0.921 -0.0873     0.987  0.893 -0.157 -0.273  -0.806   0.322 
##  6    -0.979  0.921 -0.453      1.75  -0.446  0.804 -0.273   0.359   0.836 
##  7    -0.979  0.108  0.369      1.75  -0.784 -0.449 -0.273   0.359   0.0299
##  8    -0.238  0.108 -0.270      0.224 -0.221 -0.115 -0.273   0.253   0.210 
##  9    -0.114 -0.706 -0.727      0.224 -0.271 -0.199 -0.273  -0.806  -0.882 
## 10     1.37  -0.706  0.00402    0.987  0.342 -0.157 -0.0520 -0.912  -0.841 
## # ... with 3,331 more rows, and 14 more variables: Status <fct>,
## #   Home_other <dbl>, Home_owner <dbl>, Home_parents <dbl>,
## #   Home_priv <dbl>, Home_rent <dbl>, Marital_married <dbl>,
## #   Marital_separated <dbl>, Marital_single <dbl>, Marital_widow <dbl>,
## #   Records_yes <dbl>, Job_freelance <dbl>, Job_others <dbl>,
## #   Job_partime <dbl>
…
