Uma Análise (Quase) Estatística De Bob Ross | Edgar Cutar Junior
…
Temos cada uma das 403 pinturas que Bob Ross fez ao longo dos 11 anos e 31 temporadas de The Joy of Painting, cada uma delas contendo os diversos elementos presentes em cada pintura: casas, barcos, palmeiras, árvores etc.

Para organizar um pouco a tabela, vamos usar a função gather, colocando os diversos elementos em uma única coluna e sua existência ou não como outra coluna. Vamos também separar episódio e temporada em colunas próprias, numéricas, usando algumas funções do pacote stringr e um pouquinho de regex.

bob_ross_gather <- bob_ross %>% 
  separate(episode, into = c("season", "episode"), sep = "E") %>% 
  mutate(season = str_extract(season, "[:digit:]+")) %>% 
  mutate_at(vars(season, episode), as.integer) %>% 
  gather(apple_frame:wood_framed, key = element, value = presence) %>% 
  print()

## # A tibble: 27,001 x 5
##    season episode title                     element     presence
##     <int>   <int> <chr>                     <chr>          <dbl>
##  1      1       1 "\"A WALK IN THE WOODS\"" apple_frame        0
##  2      1       2 "\"MT. MCKINLEY\""        apple_frame        0
##  3      1       3 "\"EBONY SUNSET\""        apple_frame        0
##  4      1       4 "\"WINTER MIST\""         apple_frame        0
##  5      1       5 "\"QUIET STREAM\""        apple_frame        0
##  6      1       6 "\"WINTER MOON\""         apple_frame        0
##  7      1       7 "\"AUTUMN MOUNTAINS\""    apple_frame        0
##  8      1       8 "\"PEACEFUL VALLEY\""     apple_frame        0
##  9      1       9 "\"SEASCAPE\""            apple_frame        0
## 10      1      10 "\"MOUNTAIN LAKE\""       apple_frame        0
## # ... with 26,991 more rows
…
