Ajuste de modelos preditivos com o pacote {parsnip} | Edgar Cutar Junior
…
Predições

Além das óbvias funcionalidades para ajustar diferentes modelos, ainda temos muitas vantagens na hora de prever resultados. Isso resolve uma série de frustrações como ter um arquivo predito que PULA algum resultado quando tem valores faltando, por exemplo, além de padronizar a função.

Para regressões logísticas, por exemplo, o output é sempre um tibble com uma coluna .pred_class contendo a classe predita.

predict(glm_fit, test_data)

## # A tibble: 312 x 1
##    .pred_class
##    <fct>      
##  1 Down       
##  2 Up         
##  3 Up         
##  4 Up         
##  5 Down       
##  6 Up         
##  7 Up         
##  8 Up         
##  9 Down       
## 10 Up         
## # ... with 302 more rows

predict(stan_fit, test_data)

## # A tibble: 312 x 1
##    .pred_class
##    <fct>      
##  1 Down       
##  2 Up         
##  3 Up         
##  4 Up         
##  5 Down       
##  6 Up         
##  7 Up         
##  8 Up         
##  9 Down       
## 10 Up         
## # ... with 302 more rows

Isso facilita a união com os valores originais e o . no nome é para evitar nomes duplicados.

parsnip também trás diferentes tipos de previsão com uma interface padrão. Por exemplo, para estimativa de intervalos.

predict(glm_fit, test_data, type = "conf_int")

## # A tibble: 312 x 4
##    .pred_lower_Down .pred_upper_Down .pred_lower_Up .pred_upper_Up
##               <dbl>            <dbl>          <dbl>          <dbl>
##  1            0.429            0.611          0.389          0.571
##  2            0.439            0.553          0.447          0.561
##  3            0.400            0.557          0.443          0.600
##  4            0.396            0.544          0.456          0.604
##  5            0.436            0.586          0.414          0.564
##  6            0.329            0.509          0.491          0.671
##  7            0.396            0.549          0.451          0.604
##  8            0.313            0.648          0.352          0.687
##  9            0.449            0.676          0.324          0.551
## 10            0.251            0.500          0.500          0.749
## # ... with 302 more rows

Ou para as probabilidades de cada previsão:

predict(glm_fit, test_data, type = "prob")

## # A tibble: 312 x 2
##    .pred_Down .pred_Up
##         <dbl>    <dbl>
##  1      0.521    0.479
##  2      0.496    0.504
##  3      0.478    0.522
##  4      0.469    0.531
##  5      0.511    0.489
##  6      0.416    0.584
##  7      0.472    0.528
##  8      0.478    0.522
##  9      0.566    0.434
## 10      0.367    0.633
## # ... with 302 more rows
…
